{
  "docs": [
    {
      "id": 8484693,
      "name": "\u0417\u0430\u043a\u043b\u044f\u0442\u0438\u0435 \u043b\u044e\u0431\u043e\u0432\u043d\u043e\u0433\u043e \u0442\u0440\u0435\u0443\u0433\u043e\u043b\u044c\u043d\u0438\u043a\u0430",
      "alternativeName": "Fatal Temptation: Between Two Alphas",
      "type": "tv-series",
      "typeNumber": 2,
      "year": 2023,
      "description": null,
      "shortDescription": null,
      "status": "completed",
      "rating": {
        "kp": 0,
        "imdb": 7.6,
        "filmCritics": 0,
        "russianFilmCritics": 0,
        "await": 0
      },
      "votes": {
        "kp": 0,
        "imdb": 56,
        "filmCritics": 0,
        "russianFilmCritics": 0,
        "await": 0
      },
      "movieLength": null,
      "totalSeriesLength": 2,
      "seriesLength": null,
      "ratingMpaa": null,
      "ageRating": null,
      "genres": [
        {
          "name": "\u0443\u0436\u0430\u0441\u044b"
        },
        {
          "name": "\u0444\u044d\u043d\u0442\u0435\u0437\u0438"
        },
        {
          "name": "\u0431\u043e\u0435\u0432\u0438\u043a"
        },
        {
          "name": "\u0434\u0440\u0430\u043c\u0430"
        },
        {
          "name": "\u043c\u0435\u043b\u043e\u0434\u0440\u0430\u043c\u0430"
        }
      ],
      "countries": [
        {
          "name": "\u0421\u0428\u0410"
        }
      ],
      "releaseYears": [
        {
          "start": 2023,
          "end": 2023
        }
      ],
      "top10": null,
      "top250": null,
      "isSeries": true,
      "ticketsOnSale": false
    },
    {
      "id": 8484684,
      "name": "\u041f\u0440\u043e\u0449\u0430\u0439, \u043d\u0430\u0447\u0430\u043b\u044c\u043d\u0438\u043a",
      "alternativeName": "Goodbye, My CEO",
      "type": "tv-series",
      "typeNumber": 2,
      "year": 2023,
      "description": null,
      "shortDescription": null,
      "status": "completed",
      "rating": {
        "kp": 0,
        "imdb": 7.2,
        "filmCritics": 0,
        "russianFilmCritics": 0,
        "await": 0
      },
      "votes": {
        "kp": 0,
        "imdb": 121,
        "filmCritics": 0,
        "russianFilmCritics": 0,
        "await": 0
      },
      "movieLength": null,
      "totalSeriesLength": null,
      "seriesLength": null,
      "ratingMpaa": null,
      "ageRating": null,
      "genres": [
        {
          "name": "\u0431\u043e\u0435\u0432\u0438\u043a"
        },
        {
          "name": "\u0434\u0440\u0430\u043c\u0430"
        },
        {
          "name": "\u043c\u0435\u043b\u043e\u0434\u0440\u0430\u043c\u0430"
        },
        {
          "name": "\u043a\u0440\u0438\u043c\u0438\u043d\u0430\u043b"
        }
      ],
      "countries": [
        {
          "name": "\u0421\u0428\u0410"
        }
      ],
      "releaseYears": [
        {
          "start": 2023,
          "end": 2023
        }
      ],
      "top10": null,
      "top250": null,
      "isSeries": true,
      "ticketsOnSale": false
    },
    {
      "id": 8479347,
      "name": "\u0426\u0430\u0440\u0441\u0442\u0432\u043e 5",
      "alternativeName": "Kingdom 5",
      "type": "movie",
      "typeNumber": 1,
      "year": 2026,
      "description": null,
      "shortDescription": null,
      "status": "completed",
      "rating": {
        "kp": 0,
        "imdb": 0,
        "filmCritics": 0,
        "russianFilmCritics": 0,
        "await": 0
      },
      "votes": {
        "kp": 0,
        "imdb": 0,
        "filmCritics": 0,
        "russianFilmCritics": 0,
        "await": 0
      },
      "movieLength": null,
      "totalSeriesLength": null,
      "seriesLength": null,
      "ratingMpaa": null,
      "ageRating": null,
      "poster": {
        "url": "https://image.openmoviedb.com/kinopoisk-images/10953618/a515328b-3158-421f-bf96-649a913dfb33/600x900",
        "previewUrl": "https://image.openmoviedb.com/kinopoisk-images/10953618/a515328b-3158-421f-bf96-649a913dfb33/300x450"
      },
      "genres": [
        {
          "name": "\u0431\u043e\u0435\u0432\u0438\u043a"
        },
        {
          "name": "\u0432\u043e\u0435\u043d\u043d\u044b\u0439"
        },
        {
          "name": "\u0434\u0440\u0430\u043c\u0430"
        }
      ],
      "countries": [
        {
          "name": "\u042f\u043f\u043e\u043d\u0438\u044f"
        }
      ],
      "isSeries": false,
      "ticketsOnSale": false
    },
    {
      "id": 8430992,
      "name": "\u0416\u043c\u0438 \u043d\u0430 \u0433\u0430\u0437",
      "alternativeName": "Full Speed",
      "type": "tv-series",
      "typeNumber": 2,
      "year": 2023,
      "description": null,
      "shortDescription": null,
      "status": null,
      "rating": {
        "kp": 0,
        "imdb": 3.2,
        "filmCritics": 0,
        "russianFilmCritics": 0,
        "await": 0
      },
      "votes": {
        "kp": 0,
        "imdb": 7,
        "filmCritics": 0,
        "russianFilmCritics": 0,
        "await": 0
      },
      "movieLength": null,
      "totalSeriesLength": 24,
      "seriesLength": null,
      "ratingMpaa": null,
      "ageRating": null,
      "genres": [
        {
          "name": "\u0431\u043e\u0435\u0432\u0438\u043a"
        },
        {
          "name": "\u0434\u0440\u0430\u043c\u0430"
        }
      ],
      "countries": [
        {
          "name": "\u0418\u0437\u0440\u0430\u0438\u043b\u044c"
        }
      ],
      "releaseYears": [
        {
          "start": 2023,
          "end": null
        }
      ],
      "top10": null,
      "top250": null,
      "isSeries": true,
      "ticketsOnSale": false
    },
    {
      "id": 8440970,
      "name": "\u041d\u0435\u0437\u0430\u043a\u043e\u043d\u043d\u043e\u0435 \u0432\u0442\u043e\u0440\u0436\u0435\u043d\u0438\u0435",
      "alternativeName": "Allanamiento",
      "type": "movie",
      "typeNumber": 1,
      "year": 2023,
      "description": null,
      "shortDescription": null,
      "status": null,
      "rating": {
        "kp": 0,
        "imdb": 5.3,
        "filmCritics": 0,
        "russianFilmCritics": 0,
        "await": 0
      },
      "votes": {
        "kp": 0,
        "imdb": 19,
        "filmCritics": 0,
        "russianFilmCritics": 0,
        "await": 0
      },
      "movieLength": 80,
      "totalSeriesLength": null,
      "seriesLength": null,
      "ratingMpaa": null,
      "ageRating": null,
      "poster": {
        "url": "https://image.openmoviedb.com/kinopoisk-images/1898899/a11d4010-2a38-46b8-b739-0bdfe3a54d9c/600x900",
        "previewUrl": "https://image.openmoviedb.com/kinopoisk-images/1898899/a11d4010-2a38-46b8-b739-0bdfe3a54d9c/300x450"
      },
      "genres": [
        {
          "name": "\u0431\u043e\u0435\u0432\u0438\u043a"
        }
      ],
      "countries": [
        {
          "name": "\u0427\u0438\u043b\u0438"
        }
      ],
      "isSeries": false,
      "ticketsOnSale": false
    },
    {
      "id": 8426881,
      "name": null,
      "alternativeName": "Serra das Almas",
      "type": "movie",
      "typeNumber": 1,
      "year": 2024,
      "description": null,
      "shortDescription": null,
      "status": null,
      "rating": {
        "kp": 0,
        "imdb": 5.4,
        "filmCritics": 0,
        "russianFilmCritics": 0,
        "await": 0
      },
      "votes": {
        "kp": 0,
        "imdb": 52,
        "filmCritics": 0,
        "russianFilmCritics": 0,
        "await": 0
      },
      "movieLength": 120,
      "totalSeriesLength": null,
      "seriesLength": null,
      "ratingMpaa": null,
      "ageRating": null,
      "genres": [
        {
          "name": "\u0431\u043e\u0435\u0432\u0438\u043a"
        }
      ],
      "countries": [
        {
          "name": "\u0411\u0440\u0430\u0437\u0438\u043b\u0438\u044f"
        }
      ],
      "isSeries": false,
      "ticketsOnSale": false
    },
    {
      "id": 8424211,
      "name": "\u0413\u043e\u043b\u044b\u0435 \u0440\u0443\u043a\u0438",
      "alternativeName": "Mani nude",
      "type": "movie",
      "typeNumber": 1,
      "year": 2024,
      "description": null,
      "shortDescription": null,
      "status": null,
      "rating": {
        "kp": 0,
        "imdb": 6.6,
        "filmCritics": 0,
        "russianFilmCritics": 0,
        "await": 0
      },
      "votes": {
        "kp": 0,
        "imdb": 59,
        "filmCritics": 0,
        "russianFilmCritics": 0,
        "await": 0
      },
      "movieLength": 84,
      "totalSeriesLength": null,
      "seriesLength": null,
      "ratingMpaa": null,
      "ageRating": null,
      "genres": [
        {
          "name": "\u0431\u043e\u0435\u0432\u0438\u043a"
        },
        {
          "name": "\u0434\u0440\u0430\u043c\u0430"
        },
        {
          "name": "\u043a\u0440\u0438\u043c\u0438\u043d\u0430\u043b"
        }
      ],
      "countries": [
        {
          "name": "\u0418\u0442\u0430\u043b\u0438\u044f"
        }
      ],
      "isSeries": false,
      "ticketsOnSale": false,
      "poster": {
        "previewUrl": "https://image.openmoviedb.com/kinopoisk-images/10768063/e88da43c-4b34-493f-aa55-7ff9ace1e952/300x450",
        "url": "https://image.openmoviedb.com/kinopoisk-images/10768063/e88da43c-4b34-493f-aa55-7ff9ace1e952/600x900"
      }
    },
    {
      "id": 8414818,
      "name": null,
      "alternativeName": "Sous \u00e9crous",
      "type": "movie",
      "typeNumber": 1,
      "year": 2024,
      "description": null,
      "shortDescription": null,
      "status": null,
      "rating": {
        "kp": 0,
        "imdb": 4.9,
        "filmCritics": 0,
        "russianFilmCritics": 0,
        "await": 0
      },
      "votes": {
        "kp": 0,
        "imdb": 105,
        "filmCritics": 0,
        "russianFilmCritics": 0,
        "await": 0
      },
      "movieLength": 111,
      "totalSeriesLength": null,
      "seriesLength": null,
      "ratingMpaa": null,
      "ageRating": null,
      "genres": [
        {
          "name": "\u0431\u043e\u0435\u0432\u0438\u043a"
        },
        {
          "name": "\u043a\u043e\u043c\u0435\u0434\u0438\u044f"
        },
        {
          "name": "\u043a\u0440\u0438\u043c\u0438\u043d\u0430\u043b"
        }
      ],
      "countries": [
        {
          "name": "\u0424\u0440\u0430\u043d\u0446\u0438\u044f"
        }
      ],
      "isSeries": false,
      "ticketsOnSale": false
    },
    {
      "id": 8430995,
      "name": "\u0410\u043b\u043b\u0430\u043f\u0443\u0436\u0430 \u0413\u0438\u043c\u0445\u0430\u043d\u0430",
      "alternativeName": "Alappuzha Gymkhana",
      "type": "movie",
      "typeNumber": 1,
      "year": 2025,
      "description": "\u0418\u0437 \u043f\u044f\u0442\u0435\u0440\u044b\u0445 \u0434\u0440\u0443\u0437\u0435\u0439 \u0442\u043e\u043b\u044c\u043a\u043e \u043e\u0434\u0438\u043d \u0443\u0441\u043f\u0435\u0448\u043d\u043e \u0441\u0434\u0430\u0451\u0442 \u0432\u044b\u043f\u0443\u0441\u043a\u043d\u043e\u0439 \u044d\u043a\u0437\u0430\u043c\u0435\u043d. \u041e\u043d\u0438\u00a0\u0445\u043e\u0442\u044f\u0442 \u043f\u043e\u0441\u0442\u0443\u043f\u0438\u0442\u044c \u0432\u043c\u0435\u0441\u0442\u0435 \u0432\u00a0\u043e\u0434\u0438\u043d \u0432\u0443\u0437, \u043f\u043e\u044d\u0442\u043e\u043c\u0443 \u0440\u0435\u0448\u0430\u044e\u0442 \u043f\u043e\u043f\u0430\u0441\u0442\u044c \u043d\u0430\u00a0\u0443\u0447\u0451\u0431\u0443 \u043f\u043e\u00a0\u0441\u043f\u043e\u0440\u0442\u0438\u0432\u043d\u043e\u0439 \u043a\u0432\u043e\u0442\u0435. \u041e\u043d\u0438\u00a0\u0432\u044b\u0431\u0438\u0440\u0430\u044e\u0442 \u0431\u043e\u043a\u0441. \u041f\u0430\u0440\u043d\u0438 \u0437\u0430\u043f\u0438\u0441\u044b\u0432\u0430\u044e\u0442\u0441\u044f \u0432\u00a0\u043c\u0435\u0441\u0442\u043d\u0443\u044e \u0448\u043a\u043e\u043b\u0443 \u0431\u043e\u043a\u0441\u0430 \u0438\u00a0\u0437\u0430\u0442\u0435\u043c \u043f\u0440\u043e\u0445\u043e\u0434\u044f\u0442 \u043e\u043a\u0440\u0443\u0436\u043d\u043e\u0439 \u043e\u0442\u0431\u043e\u0440, \u043e\u0434\u043d\u0430\u043a\u043e \u043e\u043d\u0438\u00a0\u043d\u0435 \u0443\u0432\u0435\u0440\u0435\u043d\u044b, \u0445\u0432\u0430\u0442\u0438\u0442 \u043b\u0438\u00a0\u0438\u043c \u043d\u0430\u0432\u044b\u043a\u043e\u0432 \u043d\u0430\u00a0\u0441\u043e\u0440\u0435\u0432\u043d\u043e\u0432\u0430\u043d\u0438\u044f\u0445 \u0431\u043e\u043b\u0435\u0435 \u0432\u044b\u0441\u043e\u043a\u043e\u0433\u043e \u0443\u0440\u043e\u0432\u043d\u044f.",
      "shortDescription": null,
      "status": null,
      "rating": {
        "kp": 0,
        "imdb": 6.8,
        "filmCritics": 0,
        "russianFilmCritics": 0,
        "await": 0
      },
      "votes": {
        "kp": 2,
        "imdb": 4000,
        "filmCritics": 0,
        "russianFilmCritics": 0,
        "await": 0
      },
      "movieLength": 139,
      "totalSeriesLength": null,
      "seriesLength": null,
      "ratingMpaa": null,
      "ageRating": null,
      "genres": [
        {
          "name": "\u0431\u043e\u0435\u0432\u0438\u043a"
        },
        {
          "name": "\u0434\u0440\u0430\u043c\u0430"
        },
        {
          "name": "\u043a\u043e\u043c\u0435\u0434\u0438\u044f"
        }
      ],
      "countries": [
        {
          "name": "\u0418\u043d\u0434\u0438\u044f"
        }
      ],
      "isSeries": false,
      "ticketsOnSale": false,
      "poster": {
        "previewUrl": "https://image.openmoviedb.com/kinopoisk-images/10900341/58231e8a-19fc-45f3-b376-648702eb3476/300x450",
        "url": "https://image.openmoviedb.com/kinopoisk-images/10900341/58231e8a-19fc-45f3-b376-648702eb3476/600x900"
      }
    },
    {
      "id": 8425247,
      "name": null,
      "alternativeName": "Papa Zola: The Movie",
      "type": "cartoon",
      "typeNumber": 3,
      "year": 2025,
      "description": null,
      "shortDescription": null,
      "status": "post-production",
      "rating": {
        "kp": 0,
        "imdb": 0,
        "filmCritics": 0,
        "russianFilmCritics": 0,
        "await": 0
      },
      "votes": {
        "kp": 0,
        "imdb": 0,
        "filmCritics": 0,
        "russianFilmCritics": 0,
        "await": 0
      },
      "movieLength": null,
      "totalSeriesLength": null,
      "seriesLength": null,
      "ratingMpaa": null,
      "ageRating": null,
      "genres": [
        {
          "name": "\u043c\u0443\u043b\u044c\u0442\u0444\u0438\u043b\u044c\u043c"
        },
        {
          "name": "\u0444\u0430\u043d\u0442\u0430\u0441\u0442\u0438\u043a\u0430"
        },
        {
          "name": "\u0431\u043e\u0435\u0432\u0438\u043a"
        },
        {
          "name": "\u043a\u043e\u043c\u0435\u0434\u0438\u044f"
        },
        {
          "name": "\u043f\u0440\u0438\u043a\u043b\u044e\u0447\u0435\u043d\u0438\u044f"
        },
        {
          "name": "\u0441\u0435\u043c\u0435\u0439\u043d\u044b\u0439"
        }
      ],
      "countries": [
        {
          "name": "\u041c\u0430\u043b\u0430\u0439\u0437\u0438\u044f"
        }
      ],
      "isSeries": false,
      "ticketsOnSale": false,
      "poster": {
        "previewUrl": "https://image.openmoviedb.com/kinopoisk-images/10809116/b80e345f-78b7-406a-9f20-2091eb3f7d2c/300x450",
        "url": "https://image.openmoviedb.com/kinopoisk-images/10809116/b80e345f-78b7-406a-9f20-2091eb3f7d2c/600x900"
      }
    }
  ],
  "total": 67060,
  "limit": 10,
  "page": 1,
  "pages": 6706
}